{
    "description": "Envoyez l'email de confirmation d'adresse",
    "name": "account/confirm_email.json",
    "url": "api/v2/account/confirm_email.json",
    "method": "GET",
    "real_name": "Envoyer un e-mail de confirmation",
    "auth_level": 2,
    "rate_limit": 1,
    "expiration": 30,
    "rights": 1,
    "arguments": {
    },
    "response":"{\"confirmation_mail\": \"sended\", \"mail\": \"__email_address__\"}"
}