{
    "description": "Récupérez une shitstorm",
    "name": "shitstorm/unique/:id.json",
    "url": "api/v2/shitstorm/unique/:id.json",
    "additionnals": ":id doit être remplacé par l'ID numérique d'une shitstorm à récupérer.",
    "method": "GET",
    "real_name": "Récupération d'une shitstorm",
    "auth_level": 0,
    "rate_limit": 300,
    "rights": 0,
    "arguments": {
    },
    "response":"{\"shitstorm_object\": \"...\"}"
}